G04 #@! TF.GenerationSoftware,KiCad,Pcbnew,5.1.3-ffb9f22~84~ubuntu19.04.1*
G04 #@! TF.CreationDate,2019-08-05T22:14:11+03:00*
G04 #@! TF.ProjectId,TNY280_Preamp_PSU,544e5932-3830-45f5-9072-65616d705f50,rev?*
G04 #@! TF.SameCoordinates,Original*
G04 #@! TF.FileFunction,Soldermask,Top*
G04 #@! TF.FilePolarity,Negative*
%FSLAX46Y46*%
G04 Gerber Fmt 4.6, Leading zero omitted, Abs format (unit mm)*
G04 Created by KiCad (PCBNEW 5.1.3-ffb9f22~84~ubuntu19.04.1) date 2019-08-05 22:14:11*
%MOMM*%
%LPD*%
G04 APERTURE LIST*
%ADD10C,0.500000*%
%ADD11C,0.100000*%
G04 APERTURE END LIST*
D10*
X105410000Y-98425000D02*
X105410000Y-60960000D01*
X160655000Y-98425000D02*
X105410000Y-98425000D01*
X160655000Y-60960000D02*
X160655000Y-98425000D01*
X105410000Y-60960000D02*
X160655000Y-60960000D01*
D11*
G36*
X158381000Y-96786000D02*
G01*
X156579000Y-96786000D01*
X156579000Y-94984000D01*
X158381000Y-94984000D01*
X158381000Y-96786000D01*
X158381000Y-96786000D01*
G37*
G36*
X155050443Y-94990519D02*
G01*
X155116627Y-94997037D01*
X155286466Y-95048557D01*
X155442991Y-95132222D01*
X155478729Y-95161552D01*
X155580186Y-95244814D01*
X155663448Y-95346271D01*
X155692778Y-95382009D01*
X155776443Y-95538534D01*
X155827963Y-95708373D01*
X155845359Y-95885000D01*
X155827963Y-96061627D01*
X155776443Y-96231466D01*
X155692778Y-96387991D01*
X155667653Y-96418606D01*
X155580186Y-96525186D01*
X155480323Y-96607140D01*
X155442991Y-96637778D01*
X155286466Y-96721443D01*
X155116627Y-96772963D01*
X155050442Y-96779482D01*
X154984260Y-96786000D01*
X154895740Y-96786000D01*
X154829558Y-96779482D01*
X154763373Y-96772963D01*
X154593534Y-96721443D01*
X154437009Y-96637778D01*
X154399677Y-96607140D01*
X154299814Y-96525186D01*
X154212347Y-96418606D01*
X154187222Y-96387991D01*
X154103557Y-96231466D01*
X154052037Y-96061627D01*
X154034641Y-95885000D01*
X154052037Y-95708373D01*
X154103557Y-95538534D01*
X154187222Y-95382009D01*
X154216552Y-95346271D01*
X154299814Y-95244814D01*
X154401271Y-95161552D01*
X154437009Y-95132222D01*
X154593534Y-95048557D01*
X154763373Y-94997037D01*
X154829557Y-94990519D01*
X154895740Y-94984000D01*
X154984260Y-94984000D01*
X155050443Y-94990519D01*
X155050443Y-94990519D01*
G37*
G36*
X109965443Y-94990519D02*
G01*
X110031627Y-94997037D01*
X110201466Y-95048557D01*
X110357991Y-95132222D01*
X110393729Y-95161552D01*
X110495186Y-95244814D01*
X110578448Y-95346271D01*
X110607778Y-95382009D01*
X110691443Y-95538534D01*
X110742963Y-95708373D01*
X110760359Y-95885000D01*
X110742963Y-96061627D01*
X110691443Y-96231466D01*
X110607778Y-96387991D01*
X110582653Y-96418606D01*
X110495186Y-96525186D01*
X110395323Y-96607140D01*
X110357991Y-96637778D01*
X110201466Y-96721443D01*
X110031627Y-96772963D01*
X109965442Y-96779482D01*
X109899260Y-96786000D01*
X109810740Y-96786000D01*
X109744558Y-96779482D01*
X109678373Y-96772963D01*
X109508534Y-96721443D01*
X109352009Y-96637778D01*
X109314677Y-96607140D01*
X109214814Y-96525186D01*
X109127347Y-96418606D01*
X109102222Y-96387991D01*
X109018557Y-96231466D01*
X108967037Y-96061627D01*
X108949641Y-95885000D01*
X108967037Y-95708373D01*
X109018557Y-95538534D01*
X109102222Y-95382009D01*
X109131552Y-95346271D01*
X109214814Y-95244814D01*
X109316271Y-95161552D01*
X109352009Y-95132222D01*
X109508534Y-95048557D01*
X109678373Y-94997037D01*
X109744557Y-94990519D01*
X109810740Y-94984000D01*
X109899260Y-94984000D01*
X109965443Y-94990519D01*
X109965443Y-94990519D01*
G37*
G36*
X112505443Y-94990519D02*
G01*
X112571627Y-94997037D01*
X112741466Y-95048557D01*
X112897991Y-95132222D01*
X112933729Y-95161552D01*
X113035186Y-95244814D01*
X113118448Y-95346271D01*
X113147778Y-95382009D01*
X113231443Y-95538534D01*
X113282963Y-95708373D01*
X113300359Y-95885000D01*
X113282963Y-96061627D01*
X113231443Y-96231466D01*
X113147778Y-96387991D01*
X113122653Y-96418606D01*
X113035186Y-96525186D01*
X112935323Y-96607140D01*
X112897991Y-96637778D01*
X112741466Y-96721443D01*
X112571627Y-96772963D01*
X112505442Y-96779482D01*
X112439260Y-96786000D01*
X112350740Y-96786000D01*
X112284558Y-96779482D01*
X112218373Y-96772963D01*
X112048534Y-96721443D01*
X111892009Y-96637778D01*
X111854677Y-96607140D01*
X111754814Y-96525186D01*
X111667347Y-96418606D01*
X111642222Y-96387991D01*
X111558557Y-96231466D01*
X111507037Y-96061627D01*
X111489641Y-95885000D01*
X111507037Y-95708373D01*
X111558557Y-95538534D01*
X111642222Y-95382009D01*
X111671552Y-95346271D01*
X111754814Y-95244814D01*
X111856271Y-95161552D01*
X111892009Y-95132222D01*
X112048534Y-95048557D01*
X112218373Y-94997037D01*
X112284557Y-94990519D01*
X112350740Y-94984000D01*
X112439260Y-94984000D01*
X112505443Y-94990519D01*
X112505443Y-94990519D01*
G37*
G36*
X115045443Y-94990519D02*
G01*
X115111627Y-94997037D01*
X115281466Y-95048557D01*
X115437991Y-95132222D01*
X115473729Y-95161552D01*
X115575186Y-95244814D01*
X115658448Y-95346271D01*
X115687778Y-95382009D01*
X115771443Y-95538534D01*
X115822963Y-95708373D01*
X115840359Y-95885000D01*
X115822963Y-96061627D01*
X115771443Y-96231466D01*
X115687778Y-96387991D01*
X115662653Y-96418606D01*
X115575186Y-96525186D01*
X115475323Y-96607140D01*
X115437991Y-96637778D01*
X115281466Y-96721443D01*
X115111627Y-96772963D01*
X115045442Y-96779482D01*
X114979260Y-96786000D01*
X114890740Y-96786000D01*
X114824558Y-96779482D01*
X114758373Y-96772963D01*
X114588534Y-96721443D01*
X114432009Y-96637778D01*
X114394677Y-96607140D01*
X114294814Y-96525186D01*
X114207347Y-96418606D01*
X114182222Y-96387991D01*
X114098557Y-96231466D01*
X114047037Y-96061627D01*
X114029641Y-95885000D01*
X114047037Y-95708373D01*
X114098557Y-95538534D01*
X114182222Y-95382009D01*
X114211552Y-95346271D01*
X114294814Y-95244814D01*
X114396271Y-95161552D01*
X114432009Y-95132222D01*
X114588534Y-95048557D01*
X114758373Y-94997037D01*
X114824557Y-94990519D01*
X114890740Y-94984000D01*
X114979260Y-94984000D01*
X115045443Y-94990519D01*
X115045443Y-94990519D01*
G37*
G36*
X149970443Y-94990519D02*
G01*
X150036627Y-94997037D01*
X150206466Y-95048557D01*
X150362991Y-95132222D01*
X150398729Y-95161552D01*
X150500186Y-95244814D01*
X150583448Y-95346271D01*
X150612778Y-95382009D01*
X150696443Y-95538534D01*
X150747963Y-95708373D01*
X150765359Y-95885000D01*
X150747963Y-96061627D01*
X150696443Y-96231466D01*
X150612778Y-96387991D01*
X150587653Y-96418606D01*
X150500186Y-96525186D01*
X150400323Y-96607140D01*
X150362991Y-96637778D01*
X150206466Y-96721443D01*
X150036627Y-96772963D01*
X149970442Y-96779482D01*
X149904260Y-96786000D01*
X149815740Y-96786000D01*
X149749558Y-96779482D01*
X149683373Y-96772963D01*
X149513534Y-96721443D01*
X149357009Y-96637778D01*
X149319677Y-96607140D01*
X149219814Y-96525186D01*
X149132347Y-96418606D01*
X149107222Y-96387991D01*
X149023557Y-96231466D01*
X148972037Y-96061627D01*
X148954641Y-95885000D01*
X148972037Y-95708373D01*
X149023557Y-95538534D01*
X149107222Y-95382009D01*
X149136552Y-95346271D01*
X149219814Y-95244814D01*
X149321271Y-95161552D01*
X149357009Y-95132222D01*
X149513534Y-95048557D01*
X149683373Y-94997037D01*
X149749557Y-94990519D01*
X149815740Y-94984000D01*
X149904260Y-94984000D01*
X149970443Y-94990519D01*
X149970443Y-94990519D01*
G37*
G36*
X152510443Y-94990519D02*
G01*
X152576627Y-94997037D01*
X152746466Y-95048557D01*
X152902991Y-95132222D01*
X152938729Y-95161552D01*
X153040186Y-95244814D01*
X153123448Y-95346271D01*
X153152778Y-95382009D01*
X153236443Y-95538534D01*
X153287963Y-95708373D01*
X153305359Y-95885000D01*
X153287963Y-96061627D01*
X153236443Y-96231466D01*
X153152778Y-96387991D01*
X153127653Y-96418606D01*
X153040186Y-96525186D01*
X152940323Y-96607140D01*
X152902991Y-96637778D01*
X152746466Y-96721443D01*
X152576627Y-96772963D01*
X152510442Y-96779482D01*
X152444260Y-96786000D01*
X152355740Y-96786000D01*
X152289558Y-96779482D01*
X152223373Y-96772963D01*
X152053534Y-96721443D01*
X151897009Y-96637778D01*
X151859677Y-96607140D01*
X151759814Y-96525186D01*
X151672347Y-96418606D01*
X151647222Y-96387991D01*
X151563557Y-96231466D01*
X151512037Y-96061627D01*
X151494641Y-95885000D01*
X151512037Y-95708373D01*
X151563557Y-95538534D01*
X151647222Y-95382009D01*
X151676552Y-95346271D01*
X151759814Y-95244814D01*
X151861271Y-95161552D01*
X151897009Y-95132222D01*
X152053534Y-95048557D01*
X152223373Y-94997037D01*
X152289557Y-94990519D01*
X152355740Y-94984000D01*
X152444260Y-94984000D01*
X152510443Y-94990519D01*
X152510443Y-94990519D01*
G37*
G36*
X118376000Y-96786000D02*
G01*
X116574000Y-96786000D01*
X116574000Y-94984000D01*
X118376000Y-94984000D01*
X118376000Y-96786000D01*
X118376000Y-96786000D01*
G37*
G36*
X127166823Y-95046313D02*
G01*
X127327242Y-95094976D01*
X127420581Y-95144867D01*
X127475078Y-95173996D01*
X127604659Y-95280341D01*
X127711004Y-95409922D01*
X127711005Y-95409924D01*
X127790024Y-95557758D01*
X127838687Y-95718177D01*
X127855117Y-95885000D01*
X127838687Y-96051823D01*
X127790024Y-96212242D01*
X127719114Y-96344906D01*
X127711004Y-96360078D01*
X127604659Y-96489659D01*
X127475078Y-96596004D01*
X127475076Y-96596005D01*
X127327242Y-96675024D01*
X127166823Y-96723687D01*
X127041804Y-96736000D01*
X126958196Y-96736000D01*
X126833177Y-96723687D01*
X126672758Y-96675024D01*
X126524924Y-96596005D01*
X126524922Y-96596004D01*
X126395341Y-96489659D01*
X126288996Y-96360078D01*
X126280886Y-96344906D01*
X126209976Y-96212242D01*
X126161313Y-96051823D01*
X126144883Y-95885000D01*
X126161313Y-95718177D01*
X126209976Y-95557758D01*
X126288995Y-95409924D01*
X126288996Y-95409922D01*
X126395341Y-95280341D01*
X126524922Y-95173996D01*
X126579419Y-95144867D01*
X126672758Y-95094976D01*
X126833177Y-95046313D01*
X126958196Y-95034000D01*
X127041804Y-95034000D01*
X127166823Y-95046313D01*
X127166823Y-95046313D01*
G37*
G36*
X135471000Y-96736000D02*
G01*
X133769000Y-96736000D01*
X133769000Y-95034000D01*
X135471000Y-95034000D01*
X135471000Y-96736000D01*
X135471000Y-96736000D01*
G37*
G36*
X146269059Y-95162860D02*
G01*
X146329294Y-95187810D01*
X146405732Y-95219472D01*
X146528735Y-95301660D01*
X146633340Y-95406265D01*
X146715528Y-95529268D01*
X146715529Y-95529270D01*
X146772140Y-95665941D01*
X146801000Y-95811032D01*
X146801000Y-95958968D01*
X146780580Y-96061627D01*
X146772140Y-96104059D01*
X146715528Y-96240732D01*
X146633340Y-96363735D01*
X146528735Y-96468340D01*
X146405732Y-96550528D01*
X146405731Y-96550529D01*
X146405730Y-96550529D01*
X146269059Y-96607140D01*
X146123968Y-96636000D01*
X145976032Y-96636000D01*
X145830941Y-96607140D01*
X145694270Y-96550529D01*
X145694269Y-96550529D01*
X145694268Y-96550528D01*
X145571265Y-96468340D01*
X145466660Y-96363735D01*
X145384472Y-96240732D01*
X145327860Y-96104059D01*
X145319420Y-96061627D01*
X145299000Y-95958968D01*
X145299000Y-95811032D01*
X145327860Y-95665941D01*
X145384471Y-95529270D01*
X145384472Y-95529268D01*
X145466660Y-95406265D01*
X145571265Y-95301660D01*
X145694268Y-95219472D01*
X145770707Y-95187810D01*
X145830941Y-95162860D01*
X145976032Y-95134000D01*
X146123968Y-95134000D01*
X146269059Y-95162860D01*
X146269059Y-95162860D01*
G37*
G36*
X143094059Y-95162860D02*
G01*
X143154294Y-95187810D01*
X143230732Y-95219472D01*
X143353735Y-95301660D01*
X143458340Y-95406265D01*
X143540528Y-95529268D01*
X143540529Y-95529270D01*
X143597140Y-95665941D01*
X143626000Y-95811032D01*
X143626000Y-95958968D01*
X143605580Y-96061627D01*
X143597140Y-96104059D01*
X143540528Y-96240732D01*
X143458340Y-96363735D01*
X143353735Y-96468340D01*
X143230732Y-96550528D01*
X143230731Y-96550529D01*
X143230730Y-96550529D01*
X143094059Y-96607140D01*
X142948968Y-96636000D01*
X142801032Y-96636000D01*
X142655941Y-96607140D01*
X142519270Y-96550529D01*
X142519269Y-96550529D01*
X142519268Y-96550528D01*
X142396265Y-96468340D01*
X142291660Y-96363735D01*
X142209472Y-96240732D01*
X142152860Y-96104059D01*
X142144420Y-96061627D01*
X142124000Y-95958968D01*
X142124000Y-95811032D01*
X142152860Y-95665941D01*
X142209471Y-95529270D01*
X142209472Y-95529268D01*
X142291660Y-95406265D01*
X142396265Y-95301660D01*
X142519268Y-95219472D01*
X142595707Y-95187810D01*
X142655941Y-95162860D01*
X142801032Y-95134000D01*
X142948968Y-95134000D01*
X143094059Y-95162860D01*
X143094059Y-95162860D01*
G37*
G36*
X137868665Y-95137622D02*
G01*
X137942222Y-95144867D01*
X138083786Y-95187810D01*
X138214252Y-95257546D01*
X138242028Y-95280341D01*
X138328607Y-95351393D01*
X138398008Y-95435960D01*
X138422454Y-95465748D01*
X138492190Y-95596214D01*
X138535133Y-95737778D01*
X138549633Y-95885000D01*
X138535133Y-96032222D01*
X138492190Y-96173786D01*
X138422454Y-96304252D01*
X138398008Y-96334040D01*
X138328607Y-96418607D01*
X138268004Y-96468341D01*
X138214252Y-96512454D01*
X138083786Y-96582190D01*
X137942222Y-96625133D01*
X137868665Y-96632378D01*
X137831888Y-96636000D01*
X137758112Y-96636000D01*
X137721335Y-96632378D01*
X137647778Y-96625133D01*
X137506214Y-96582190D01*
X137375748Y-96512454D01*
X137321996Y-96468341D01*
X137261393Y-96418607D01*
X137191992Y-96334040D01*
X137167546Y-96304252D01*
X137097810Y-96173786D01*
X137054867Y-96032222D01*
X137040367Y-95885000D01*
X137054867Y-95737778D01*
X137097810Y-95596214D01*
X137167546Y-95465748D01*
X137191992Y-95435960D01*
X137261393Y-95351393D01*
X137347972Y-95280341D01*
X137375748Y-95257546D01*
X137506214Y-95187810D01*
X137647778Y-95144867D01*
X137721335Y-95137622D01*
X137758112Y-95134000D01*
X137831888Y-95134000D01*
X137868665Y-95137622D01*
X137868665Y-95137622D01*
G37*
G36*
X134786823Y-92506313D02*
G01*
X134947242Y-92554976D01*
X135040581Y-92604867D01*
X135095078Y-92633996D01*
X135224659Y-92740341D01*
X135331004Y-92869922D01*
X135331005Y-92869924D01*
X135410024Y-93017758D01*
X135458687Y-93178177D01*
X135475117Y-93345000D01*
X135458687Y-93511823D01*
X135410024Y-93672242D01*
X135339114Y-93804906D01*
X135331004Y-93820078D01*
X135224659Y-93949659D01*
X135095078Y-94056004D01*
X135095076Y-94056005D01*
X134947242Y-94135024D01*
X134786823Y-94183687D01*
X134661804Y-94196000D01*
X134578196Y-94196000D01*
X134453177Y-94183687D01*
X134292758Y-94135024D01*
X134144924Y-94056005D01*
X134144922Y-94056004D01*
X134015341Y-93949659D01*
X133908996Y-93820078D01*
X133900886Y-93804906D01*
X133829976Y-93672242D01*
X133781313Y-93511823D01*
X133764883Y-93345000D01*
X133781313Y-93178177D01*
X133829976Y-93017758D01*
X133908995Y-92869924D01*
X133908996Y-92869922D01*
X134015341Y-92740341D01*
X134144922Y-92633996D01*
X134199419Y-92604867D01*
X134292758Y-92554976D01*
X134453177Y-92506313D01*
X134578196Y-92494000D01*
X134661804Y-92494000D01*
X134786823Y-92506313D01*
X134786823Y-92506313D01*
G37*
G36*
X127166823Y-92506313D02*
G01*
X127327242Y-92554976D01*
X127420581Y-92604867D01*
X127475078Y-92633996D01*
X127604659Y-92740341D01*
X127711004Y-92869922D01*
X127711005Y-92869924D01*
X127790024Y-93017758D01*
X127838687Y-93178177D01*
X127855117Y-93345000D01*
X127838687Y-93511823D01*
X127790024Y-93672242D01*
X127719114Y-93804906D01*
X127711004Y-93820078D01*
X127604659Y-93949659D01*
X127475078Y-94056004D01*
X127475076Y-94056005D01*
X127327242Y-94135024D01*
X127166823Y-94183687D01*
X127041804Y-94196000D01*
X126958196Y-94196000D01*
X126833177Y-94183687D01*
X126672758Y-94135024D01*
X126524924Y-94056005D01*
X126524922Y-94056004D01*
X126395341Y-93949659D01*
X126288996Y-93820078D01*
X126280886Y-93804906D01*
X126209976Y-93672242D01*
X126161313Y-93511823D01*
X126144883Y-93345000D01*
X126161313Y-93178177D01*
X126209976Y-93017758D01*
X126288995Y-92869924D01*
X126288996Y-92869922D01*
X126395341Y-92740341D01*
X126524922Y-92633996D01*
X126579419Y-92604867D01*
X126672758Y-92554976D01*
X126833177Y-92506313D01*
X126958196Y-92494000D01*
X127041804Y-92494000D01*
X127166823Y-92506313D01*
X127166823Y-92506313D01*
G37*
G36*
X142948665Y-92597622D02*
G01*
X143022222Y-92604867D01*
X143163786Y-92647810D01*
X143294252Y-92717546D01*
X143322028Y-92740341D01*
X143408607Y-92811393D01*
X143478008Y-92895960D01*
X143502454Y-92925748D01*
X143572190Y-93056214D01*
X143615133Y-93197778D01*
X143629633Y-93345000D01*
X143615133Y-93492222D01*
X143572190Y-93633786D01*
X143502454Y-93764252D01*
X143478008Y-93794040D01*
X143408607Y-93878607D01*
X143348004Y-93928341D01*
X143294252Y-93972454D01*
X143163786Y-94042190D01*
X143022222Y-94085133D01*
X142948665Y-94092378D01*
X142911888Y-94096000D01*
X142838112Y-94096000D01*
X142801335Y-94092378D01*
X142727778Y-94085133D01*
X142586214Y-94042190D01*
X142455748Y-93972454D01*
X142401996Y-93928341D01*
X142341393Y-93878607D01*
X142271992Y-93794040D01*
X142247546Y-93764252D01*
X142177810Y-93633786D01*
X142134867Y-93492222D01*
X142120367Y-93345000D01*
X142134867Y-93197778D01*
X142177810Y-93056214D01*
X142247546Y-92925748D01*
X142271992Y-92895960D01*
X142341393Y-92811393D01*
X142427972Y-92740341D01*
X142455748Y-92717546D01*
X142586214Y-92647810D01*
X142727778Y-92604867D01*
X142801335Y-92597622D01*
X142838112Y-92594000D01*
X142911888Y-92594000D01*
X142948665Y-92597622D01*
X142948665Y-92597622D01*
G37*
G36*
X138014059Y-92622860D02*
G01*
X138074294Y-92647810D01*
X138150732Y-92679472D01*
X138273735Y-92761660D01*
X138378340Y-92866265D01*
X138460528Y-92989268D01*
X138517140Y-93125941D01*
X138546000Y-93271033D01*
X138546000Y-93418967D01*
X138517140Y-93564059D01*
X138460528Y-93700732D01*
X138378340Y-93823735D01*
X138273735Y-93928340D01*
X138150732Y-94010528D01*
X138150731Y-94010529D01*
X138150730Y-94010529D01*
X138014059Y-94067140D01*
X137868968Y-94096000D01*
X137721032Y-94096000D01*
X137575941Y-94067140D01*
X137439270Y-94010529D01*
X137439269Y-94010529D01*
X137439268Y-94010528D01*
X137316265Y-93928340D01*
X137211660Y-93823735D01*
X137129472Y-93700732D01*
X137072860Y-93564059D01*
X137044000Y-93418967D01*
X137044000Y-93271033D01*
X137072860Y-93125941D01*
X137129472Y-92989268D01*
X137211660Y-92866265D01*
X137316265Y-92761660D01*
X137439268Y-92679472D01*
X137515707Y-92647810D01*
X137575941Y-92622860D01*
X137721032Y-92594000D01*
X137868968Y-92594000D01*
X138014059Y-92622860D01*
X138014059Y-92622860D01*
G37*
G36*
X150001562Y-89883181D02*
G01*
X150036481Y-89893774D01*
X150068663Y-89910976D01*
X150096873Y-89934127D01*
X150120024Y-89962337D01*
X150137226Y-89994519D01*
X150147819Y-90029438D01*
X150152000Y-90071895D01*
X150152000Y-91538105D01*
X150147819Y-91580562D01*
X150137226Y-91615481D01*
X150120024Y-91647663D01*
X150096873Y-91675873D01*
X150068663Y-91699024D01*
X150036481Y-91716226D01*
X150001562Y-91726819D01*
X149959105Y-91731000D01*
X148817895Y-91731000D01*
X148775438Y-91726819D01*
X148740519Y-91716226D01*
X148708337Y-91699024D01*
X148680127Y-91675873D01*
X148656976Y-91647663D01*
X148639774Y-91615481D01*
X148629181Y-91580562D01*
X148625000Y-91538105D01*
X148625000Y-90071895D01*
X148629181Y-90029438D01*
X148639774Y-89994519D01*
X148656976Y-89962337D01*
X148680127Y-89934127D01*
X148708337Y-89910976D01*
X148740519Y-89893774D01*
X148775438Y-89883181D01*
X148817895Y-89879000D01*
X149959105Y-89879000D01*
X150001562Y-89883181D01*
X150001562Y-89883181D01*
G37*
G36*
X152976562Y-89883181D02*
G01*
X153011481Y-89893774D01*
X153043663Y-89910976D01*
X153071873Y-89934127D01*
X153095024Y-89962337D01*
X153112226Y-89994519D01*
X153122819Y-90029438D01*
X153127000Y-90071895D01*
X153127000Y-91538105D01*
X153122819Y-91580562D01*
X153112226Y-91615481D01*
X153095024Y-91647663D01*
X153071873Y-91675873D01*
X153043663Y-91699024D01*
X153011481Y-91716226D01*
X152976562Y-91726819D01*
X152934105Y-91731000D01*
X151792895Y-91731000D01*
X151750438Y-91726819D01*
X151715519Y-91716226D01*
X151683337Y-91699024D01*
X151655127Y-91675873D01*
X151631976Y-91647663D01*
X151614774Y-91615481D01*
X151604181Y-91580562D01*
X151600000Y-91538105D01*
X151600000Y-90071895D01*
X151604181Y-90029438D01*
X151614774Y-89994519D01*
X151631976Y-89962337D01*
X151655127Y-89934127D01*
X151683337Y-89910976D01*
X151715519Y-89893774D01*
X151750438Y-89883181D01*
X151792895Y-89879000D01*
X152934105Y-89879000D01*
X152976562Y-89883181D01*
X152976562Y-89883181D01*
G37*
G36*
X146123665Y-90057622D02*
G01*
X146197222Y-90064867D01*
X146338786Y-90107810D01*
X146469252Y-90177546D01*
X146499040Y-90201992D01*
X146583607Y-90271393D01*
X146653008Y-90355960D01*
X146677454Y-90385748D01*
X146747190Y-90516214D01*
X146790133Y-90657778D01*
X146804633Y-90805000D01*
X146790133Y-90952222D01*
X146747190Y-91093786D01*
X146677454Y-91224252D01*
X146653008Y-91254040D01*
X146583607Y-91338607D01*
X146499040Y-91408008D01*
X146469252Y-91432454D01*
X146338786Y-91502190D01*
X146197222Y-91545133D01*
X146123665Y-91552378D01*
X146086888Y-91556000D01*
X146013112Y-91556000D01*
X145976335Y-91552378D01*
X145902778Y-91545133D01*
X145761214Y-91502190D01*
X145630748Y-91432454D01*
X145600960Y-91408008D01*
X145516393Y-91338607D01*
X145446992Y-91254040D01*
X145422546Y-91224252D01*
X145352810Y-91093786D01*
X145309867Y-90952222D01*
X145295367Y-90805000D01*
X145309867Y-90657778D01*
X145352810Y-90516214D01*
X145422546Y-90385748D01*
X145446992Y-90355960D01*
X145516393Y-90271393D01*
X145600960Y-90201992D01*
X145630748Y-90177546D01*
X145761214Y-90107810D01*
X145902778Y-90064867D01*
X145976335Y-90057622D01*
X146013112Y-90054000D01*
X146086888Y-90054000D01*
X146123665Y-90057622D01*
X146123665Y-90057622D01*
G37*
G36*
X141327097Y-88362069D02*
G01*
X141430032Y-88372207D01*
X141628146Y-88432305D01*
X141628149Y-88432306D01*
X141724975Y-88484061D01*
X141810729Y-88529897D01*
X141970765Y-88661235D01*
X142102103Y-88821271D01*
X142147939Y-88907025D01*
X142199694Y-89003851D01*
X142199695Y-89003854D01*
X142259793Y-89201968D01*
X142280085Y-89408000D01*
X142259793Y-89614032D01*
X142199695Y-89812146D01*
X142199694Y-89812149D01*
X142156064Y-89893774D01*
X142102103Y-89994729D01*
X141970765Y-90154765D01*
X141810729Y-90286103D01*
X141724975Y-90331939D01*
X141628149Y-90383694D01*
X141628146Y-90383695D01*
X141430032Y-90443793D01*
X141327097Y-90453931D01*
X141275631Y-90459000D01*
X141172369Y-90459000D01*
X141120903Y-90453931D01*
X141017968Y-90443793D01*
X140819854Y-90383695D01*
X140819851Y-90383694D01*
X140723025Y-90331939D01*
X140637271Y-90286103D01*
X140477235Y-90154765D01*
X140345897Y-89994729D01*
X140291936Y-89893774D01*
X140248306Y-89812149D01*
X140248305Y-89812146D01*
X140188207Y-89614032D01*
X140167915Y-89408000D01*
X140188207Y-89201968D01*
X140248305Y-89003854D01*
X140248306Y-89003851D01*
X140300061Y-88907025D01*
X140345897Y-88821271D01*
X140477235Y-88661235D01*
X140637271Y-88529897D01*
X140723025Y-88484061D01*
X140819851Y-88432306D01*
X140819854Y-88432305D01*
X141017968Y-88372207D01*
X141120903Y-88362069D01*
X141172369Y-88357000D01*
X141275631Y-88357000D01*
X141327097Y-88362069D01*
X141327097Y-88362069D01*
G37*
G36*
X111265562Y-88140681D02*
G01*
X111300481Y-88151274D01*
X111332663Y-88168476D01*
X111360873Y-88191627D01*
X111384024Y-88219837D01*
X111401226Y-88252019D01*
X111411819Y-88286938D01*
X111416000Y-88329395D01*
X111416000Y-89470605D01*
X111411819Y-89513062D01*
X111401226Y-89547981D01*
X111384024Y-89580163D01*
X111360873Y-89608373D01*
X111332663Y-89631524D01*
X111300481Y-89648726D01*
X111265562Y-89659319D01*
X111223105Y-89663500D01*
X109756895Y-89663500D01*
X109714438Y-89659319D01*
X109679519Y-89648726D01*
X109647337Y-89631524D01*
X109619127Y-89608373D01*
X109595976Y-89580163D01*
X109578774Y-89547981D01*
X109568181Y-89513062D01*
X109564000Y-89470605D01*
X109564000Y-88329395D01*
X109568181Y-88286938D01*
X109578774Y-88252019D01*
X109595976Y-88219837D01*
X109619127Y-88191627D01*
X109647337Y-88168476D01*
X109679519Y-88151274D01*
X109714438Y-88140681D01*
X109756895Y-88136500D01*
X111223105Y-88136500D01*
X111265562Y-88140681D01*
X111265562Y-88140681D01*
G37*
G36*
X138032142Y-86213242D02*
G01*
X138180101Y-86274529D01*
X138313255Y-86363499D01*
X138426501Y-86476745D01*
X138515471Y-86609899D01*
X138576758Y-86757858D01*
X138608000Y-86914925D01*
X138608000Y-87075075D01*
X138576758Y-87232142D01*
X138515471Y-87380101D01*
X138426501Y-87513255D01*
X138313255Y-87626501D01*
X138180101Y-87715471D01*
X138032142Y-87776758D01*
X137875075Y-87808000D01*
X137714925Y-87808000D01*
X137557858Y-87776758D01*
X137409899Y-87715471D01*
X137276745Y-87626501D01*
X137163499Y-87513255D01*
X137074529Y-87380101D01*
X137013242Y-87232142D01*
X136982000Y-87075075D01*
X136982000Y-86914925D01*
X137013242Y-86757858D01*
X137074529Y-86609899D01*
X137163499Y-86476745D01*
X137276745Y-86363499D01*
X137409899Y-86274529D01*
X137557858Y-86213242D01*
X137714925Y-86182000D01*
X137875075Y-86182000D01*
X138032142Y-86213242D01*
X138032142Y-86213242D01*
G37*
G36*
X111265562Y-85165681D02*
G01*
X111300481Y-85176274D01*
X111332663Y-85193476D01*
X111360873Y-85216627D01*
X111384024Y-85244837D01*
X111401226Y-85277019D01*
X111411819Y-85311938D01*
X111416000Y-85354395D01*
X111416000Y-86495605D01*
X111411819Y-86538062D01*
X111401226Y-86572981D01*
X111384024Y-86605163D01*
X111360873Y-86633373D01*
X111332663Y-86656524D01*
X111300481Y-86673726D01*
X111265562Y-86684319D01*
X111223105Y-86688500D01*
X109756895Y-86688500D01*
X109714438Y-86684319D01*
X109679519Y-86673726D01*
X109647337Y-86656524D01*
X109619127Y-86633373D01*
X109595976Y-86605163D01*
X109578774Y-86572981D01*
X109568181Y-86538062D01*
X109564000Y-86495605D01*
X109564000Y-85354395D01*
X109568181Y-85311938D01*
X109578774Y-85277019D01*
X109595976Y-85244837D01*
X109619127Y-85216627D01*
X109647337Y-85193476D01*
X109679519Y-85176274D01*
X109714438Y-85165681D01*
X109756895Y-85161500D01*
X111223105Y-85161500D01*
X111265562Y-85165681D01*
X111265562Y-85165681D01*
G37*
G36*
X150224903Y-83045075D02*
G01*
X150369397Y-83104926D01*
X150452571Y-83139378D01*
X150657466Y-83276285D01*
X150831715Y-83450534D01*
X150968622Y-83655429D01*
X151062925Y-83883097D01*
X151111000Y-84124787D01*
X151111000Y-84371213D01*
X151062925Y-84612903D01*
X150968622Y-84840571D01*
X150831715Y-85045466D01*
X150657466Y-85219715D01*
X150452571Y-85356622D01*
X150452570Y-85356623D01*
X150452569Y-85356623D01*
X150224903Y-85450925D01*
X149983214Y-85499000D01*
X149736786Y-85499000D01*
X149495097Y-85450925D01*
X149267431Y-85356623D01*
X149267430Y-85356623D01*
X149267429Y-85356622D01*
X149062534Y-85219715D01*
X148888285Y-85045466D01*
X148751378Y-84840571D01*
X148657075Y-84612903D01*
X148609000Y-84371213D01*
X148609000Y-84124787D01*
X148657075Y-83883097D01*
X148751378Y-83655429D01*
X148888285Y-83450534D01*
X149062534Y-83276285D01*
X149267429Y-83139378D01*
X149350604Y-83104926D01*
X149495097Y-83045075D01*
X149736786Y-82997000D01*
X149983214Y-82997000D01*
X150224903Y-83045075D01*
X150224903Y-83045075D01*
G37*
G36*
X120966000Y-84581000D02*
G01*
X119064000Y-84581000D01*
X119064000Y-81979000D01*
X120966000Y-81979000D01*
X120966000Y-84581000D01*
X120966000Y-84581000D01*
G37*
G36*
X108586000Y-84345000D02*
G01*
X107314000Y-84345000D01*
X107314000Y-82243000D01*
X108586000Y-82243000D01*
X108586000Y-84345000D01*
X108586000Y-84345000D01*
G37*
G36*
X116206000Y-84345000D02*
G01*
X114934000Y-84345000D01*
X114934000Y-82243000D01*
X116206000Y-82243000D01*
X116206000Y-84345000D01*
X116206000Y-84345000D01*
G37*
G36*
X111301000Y-84345000D02*
G01*
X109679000Y-84345000D01*
X109679000Y-82243000D01*
X111301000Y-82243000D01*
X111301000Y-84345000D01*
X111301000Y-84345000D01*
G37*
G36*
X124062142Y-82403242D02*
G01*
X124210101Y-82464529D01*
X124343255Y-82553499D01*
X124456501Y-82666745D01*
X124545471Y-82799899D01*
X124606758Y-82947858D01*
X124638000Y-83104925D01*
X124638000Y-83265075D01*
X124606758Y-83422142D01*
X124545471Y-83570101D01*
X124456501Y-83703255D01*
X124343255Y-83816501D01*
X124210101Y-83905471D01*
X124062142Y-83966758D01*
X123905075Y-83998000D01*
X123744925Y-83998000D01*
X123587858Y-83966758D01*
X123439899Y-83905471D01*
X123306745Y-83816501D01*
X123193499Y-83703255D01*
X123104529Y-83570101D01*
X123043242Y-83422142D01*
X123012000Y-83265075D01*
X123012000Y-83104925D01*
X123043242Y-82947858D01*
X123104529Y-82799899D01*
X123193499Y-82666745D01*
X123306745Y-82553499D01*
X123439899Y-82464529D01*
X123587858Y-82403242D01*
X123744925Y-82372000D01*
X123905075Y-82372000D01*
X124062142Y-82403242D01*
X124062142Y-82403242D01*
G37*
G36*
X138032142Y-79863242D02*
G01*
X138180101Y-79924529D01*
X138313255Y-80013499D01*
X138426501Y-80126745D01*
X138515471Y-80259899D01*
X138576758Y-80407858D01*
X138608000Y-80564925D01*
X138608000Y-80725075D01*
X138576758Y-80882142D01*
X138515471Y-81030101D01*
X138426501Y-81163255D01*
X138313255Y-81276501D01*
X138180101Y-81365471D01*
X138032142Y-81426758D01*
X137875075Y-81458000D01*
X137714925Y-81458000D01*
X137557858Y-81426758D01*
X137409899Y-81365471D01*
X137276745Y-81276501D01*
X137163499Y-81163255D01*
X137074529Y-81030101D01*
X137013242Y-80882142D01*
X136982000Y-80725075D01*
X136982000Y-80564925D01*
X137013242Y-80407858D01*
X137074529Y-80259899D01*
X137163499Y-80126745D01*
X137276745Y-80013499D01*
X137409899Y-79924529D01*
X137557858Y-79863242D01*
X137714925Y-79832000D01*
X137875075Y-79832000D01*
X138032142Y-79863242D01*
X138032142Y-79863242D01*
G37*
G36*
X120966000Y-80581000D02*
G01*
X119064000Y-80581000D01*
X119064000Y-77979000D01*
X120966000Y-77979000D01*
X120966000Y-80581000D01*
X120966000Y-80581000D01*
G37*
G36*
X151111000Y-80499000D02*
G01*
X148609000Y-80499000D01*
X148609000Y-77997000D01*
X151111000Y-77997000D01*
X151111000Y-80499000D01*
X151111000Y-80499000D01*
G37*
G36*
X142275000Y-80299000D02*
G01*
X140173000Y-80299000D01*
X140173000Y-78197000D01*
X142275000Y-78197000D01*
X142275000Y-80299000D01*
X142275000Y-80299000D01*
G37*
G36*
X158281823Y-77266313D02*
G01*
X158442242Y-77314976D01*
X158574906Y-77385886D01*
X158590078Y-77393996D01*
X158719659Y-77500341D01*
X158826004Y-77629922D01*
X158826005Y-77629924D01*
X158905024Y-77777758D01*
X158953687Y-77938177D01*
X158970117Y-78105000D01*
X158953687Y-78271823D01*
X158905024Y-78432242D01*
X158834114Y-78564906D01*
X158826004Y-78580078D01*
X158719659Y-78709659D01*
X158590078Y-78816004D01*
X158590076Y-78816005D01*
X158442242Y-78895024D01*
X158281823Y-78943687D01*
X158156804Y-78956000D01*
X158073196Y-78956000D01*
X157948177Y-78943687D01*
X157787758Y-78895024D01*
X157639924Y-78816005D01*
X157639922Y-78816004D01*
X157510341Y-78709659D01*
X157403996Y-78580078D01*
X157395886Y-78564906D01*
X157324976Y-78432242D01*
X157276313Y-78271823D01*
X157259883Y-78105000D01*
X157276313Y-77938177D01*
X157324976Y-77777758D01*
X157403995Y-77629924D01*
X157403996Y-77629922D01*
X157510341Y-77500341D01*
X157639922Y-77393996D01*
X157655094Y-77385886D01*
X157787758Y-77314976D01*
X157948177Y-77266313D01*
X158073196Y-77254000D01*
X158156804Y-77254000D01*
X158281823Y-77266313D01*
X158281823Y-77266313D01*
G37*
G36*
X121066000Y-76616000D02*
G01*
X118964000Y-76616000D01*
X118964000Y-74514000D01*
X121066000Y-74514000D01*
X121066000Y-76616000D01*
X121066000Y-76616000D01*
G37*
G36*
X117475000Y-76200000D02*
G01*
X106680000Y-76200000D01*
X106680000Y-66040000D01*
X117475000Y-66040000D01*
X117475000Y-76200000D01*
X117475000Y-76200000D01*
G37*
G36*
X142275000Y-75981000D02*
G01*
X140173000Y-75981000D01*
X140173000Y-73879000D01*
X142275000Y-73879000D01*
X142275000Y-75981000D01*
X142275000Y-75981000D01*
G37*
G36*
X158363228Y-72206703D02*
G01*
X158518100Y-72270853D01*
X158657481Y-72363985D01*
X158776015Y-72482519D01*
X158869147Y-72621900D01*
X158933297Y-72776772D01*
X158966000Y-72941184D01*
X158966000Y-73108816D01*
X158933297Y-73273228D01*
X158869147Y-73428100D01*
X158776015Y-73567481D01*
X158657481Y-73686015D01*
X158518100Y-73779147D01*
X158363228Y-73843297D01*
X158198816Y-73876000D01*
X158031184Y-73876000D01*
X157866772Y-73843297D01*
X157711900Y-73779147D01*
X157572519Y-73686015D01*
X157453985Y-73567481D01*
X157360853Y-73428100D01*
X157296703Y-73273228D01*
X157264000Y-73108816D01*
X157264000Y-72941184D01*
X157296703Y-72776772D01*
X157360853Y-72621900D01*
X157453985Y-72482519D01*
X157572519Y-72363985D01*
X157711900Y-72270853D01*
X157866772Y-72206703D01*
X158031184Y-72174000D01*
X158198816Y-72174000D01*
X158363228Y-72206703D01*
X158363228Y-72206703D01*
G37*
G36*
X138032142Y-72243242D02*
G01*
X138180101Y-72304529D01*
X138313255Y-72393499D01*
X138426501Y-72506745D01*
X138515471Y-72639899D01*
X138576758Y-72787858D01*
X138608000Y-72944925D01*
X138608000Y-73105075D01*
X138576758Y-73262142D01*
X138515471Y-73410101D01*
X138426501Y-73543255D01*
X138313255Y-73656501D01*
X138180101Y-73745471D01*
X138032142Y-73806758D01*
X137875075Y-73838000D01*
X137714925Y-73838000D01*
X137557858Y-73806758D01*
X137409899Y-73745471D01*
X137276745Y-73656501D01*
X137163499Y-73543255D01*
X137074529Y-73410101D01*
X137013242Y-73262142D01*
X136982000Y-73105075D01*
X136982000Y-72944925D01*
X137013242Y-72787858D01*
X137074529Y-72639899D01*
X137163499Y-72506745D01*
X137276745Y-72393499D01*
X137409899Y-72304529D01*
X137557858Y-72243242D01*
X137714925Y-72212000D01*
X137875075Y-72212000D01*
X138032142Y-72243242D01*
X138032142Y-72243242D01*
G37*
G36*
X150224903Y-69583075D02*
G01*
X150266008Y-69600101D01*
X150452571Y-69677378D01*
X150657466Y-69814285D01*
X150831715Y-69988534D01*
X150968622Y-70193429D01*
X151062925Y-70421097D01*
X151111000Y-70662787D01*
X151111000Y-70909213D01*
X151062925Y-71150903D01*
X150968622Y-71378571D01*
X150831715Y-71583466D01*
X150657466Y-71757715D01*
X150452571Y-71894622D01*
X150452570Y-71894623D01*
X150452569Y-71894623D01*
X150224903Y-71988925D01*
X149983214Y-72037000D01*
X149736786Y-72037000D01*
X149495097Y-71988925D01*
X149267431Y-71894623D01*
X149267430Y-71894623D01*
X149267429Y-71894622D01*
X149062534Y-71757715D01*
X148888285Y-71583466D01*
X148751378Y-71378571D01*
X148657075Y-71150903D01*
X148609000Y-70909213D01*
X148609000Y-70662787D01*
X148657075Y-70421097D01*
X148751378Y-70193429D01*
X148888285Y-69988534D01*
X149062534Y-69814285D01*
X149267429Y-69677378D01*
X149453993Y-69600101D01*
X149495097Y-69583075D01*
X149736786Y-69535000D01*
X149983214Y-69535000D01*
X150224903Y-69583075D01*
X150224903Y-69583075D01*
G37*
G36*
X124062142Y-68433242D02*
G01*
X124210101Y-68494529D01*
X124343255Y-68583499D01*
X124456501Y-68696745D01*
X124545471Y-68829899D01*
X124606758Y-68977858D01*
X124638000Y-69134925D01*
X124638000Y-69295075D01*
X124606758Y-69452142D01*
X124545471Y-69600101D01*
X124456501Y-69733255D01*
X124343255Y-69846501D01*
X124210101Y-69935471D01*
X124062142Y-69996758D01*
X123905075Y-70028000D01*
X123744925Y-70028000D01*
X123587858Y-69996758D01*
X123439899Y-69935471D01*
X123306745Y-69846501D01*
X123193499Y-69733255D01*
X123104529Y-69600101D01*
X123043242Y-69452142D01*
X123012000Y-69295075D01*
X123012000Y-69134925D01*
X123043242Y-68977858D01*
X123104529Y-68829899D01*
X123193499Y-68696745D01*
X123306745Y-68583499D01*
X123439899Y-68494529D01*
X123587858Y-68433242D01*
X123744925Y-68402000D01*
X123905075Y-68402000D01*
X124062142Y-68433242D01*
X124062142Y-68433242D01*
G37*
G36*
X138032142Y-65893242D02*
G01*
X138180101Y-65954529D01*
X138313255Y-66043499D01*
X138426501Y-66156745D01*
X138515471Y-66289899D01*
X138576758Y-66437858D01*
X138608000Y-66594925D01*
X138608000Y-66755075D01*
X138576758Y-66912142D01*
X138515471Y-67060101D01*
X138426501Y-67193255D01*
X138313255Y-67306501D01*
X138180101Y-67395471D01*
X138032142Y-67456758D01*
X137875075Y-67488000D01*
X137714925Y-67488000D01*
X137557858Y-67456758D01*
X137409899Y-67395471D01*
X137276745Y-67306501D01*
X137163499Y-67193255D01*
X137074529Y-67060101D01*
X137013242Y-66912142D01*
X136982000Y-66755075D01*
X136982000Y-66594925D01*
X137013242Y-66437858D01*
X137074529Y-66289899D01*
X137163499Y-66156745D01*
X137276745Y-66043499D01*
X137409899Y-65954529D01*
X137557858Y-65893242D01*
X137714925Y-65862000D01*
X137875075Y-65862000D01*
X138032142Y-65893242D01*
X138032142Y-65893242D01*
G37*
G36*
X151111000Y-67037000D02*
G01*
X148609000Y-67037000D01*
X148609000Y-64535000D01*
X151111000Y-64535000D01*
X151111000Y-67037000D01*
X151111000Y-67037000D01*
G37*
G36*
X120118097Y-64359069D02*
G01*
X120221032Y-64369207D01*
X120419146Y-64429305D01*
X120419149Y-64429306D01*
X120515975Y-64481061D01*
X120601729Y-64526897D01*
X120761765Y-64658235D01*
X120893103Y-64818271D01*
X120938939Y-64904025D01*
X120990694Y-65000851D01*
X120990695Y-65000854D01*
X121050793Y-65198968D01*
X121071085Y-65405000D01*
X121050793Y-65611032D01*
X121039547Y-65648103D01*
X120990694Y-65809149D01*
X120984359Y-65821000D01*
X120893103Y-65991729D01*
X120761765Y-66151765D01*
X120601729Y-66283103D01*
X120515975Y-66328939D01*
X120419149Y-66380694D01*
X120419146Y-66380695D01*
X120221032Y-66440793D01*
X120118097Y-66450931D01*
X120066631Y-66456000D01*
X119963369Y-66456000D01*
X119911903Y-66450931D01*
X119808968Y-66440793D01*
X119610854Y-66380695D01*
X119610851Y-66380694D01*
X119514025Y-66328939D01*
X119428271Y-66283103D01*
X119268235Y-66151765D01*
X119136897Y-65991729D01*
X119045641Y-65821000D01*
X119039306Y-65809149D01*
X118990453Y-65648103D01*
X118979207Y-65611032D01*
X118958915Y-65405000D01*
X118979207Y-65198968D01*
X119039305Y-65000854D01*
X119039306Y-65000851D01*
X119091061Y-64904025D01*
X119136897Y-64818271D01*
X119268235Y-64658235D01*
X119428271Y-64526897D01*
X119514025Y-64481061D01*
X119610851Y-64429306D01*
X119610854Y-64429305D01*
X119808968Y-64369207D01*
X119911903Y-64359069D01*
X119963369Y-64354000D01*
X120066631Y-64354000D01*
X120118097Y-64359069D01*
X120118097Y-64359069D01*
G37*
G36*
X141327097Y-63724069D02*
G01*
X141430032Y-63734207D01*
X141628146Y-63794305D01*
X141628149Y-63794306D01*
X141724975Y-63846061D01*
X141810729Y-63891897D01*
X141970765Y-64023235D01*
X142102103Y-64183271D01*
X142147939Y-64269025D01*
X142199694Y-64365851D01*
X142199695Y-64365854D01*
X142259793Y-64563968D01*
X142280085Y-64770000D01*
X142259793Y-64976032D01*
X142252264Y-65000851D01*
X142199694Y-65174149D01*
X142147939Y-65270975D01*
X142102103Y-65356729D01*
X141970765Y-65516765D01*
X141810729Y-65648103D01*
X141724975Y-65693939D01*
X141628149Y-65745694D01*
X141628146Y-65745695D01*
X141430032Y-65805793D01*
X141327097Y-65815931D01*
X141275631Y-65821000D01*
X141172369Y-65821000D01*
X141120903Y-65815931D01*
X141017968Y-65805793D01*
X140819854Y-65745695D01*
X140819851Y-65745694D01*
X140723025Y-65693939D01*
X140637271Y-65648103D01*
X140477235Y-65516765D01*
X140345897Y-65356729D01*
X140300061Y-65270975D01*
X140248306Y-65174149D01*
X140195736Y-65000851D01*
X140188207Y-64976032D01*
X140167915Y-64770000D01*
X140188207Y-64563968D01*
X140248305Y-64365854D01*
X140248306Y-64365851D01*
X140300061Y-64269025D01*
X140345897Y-64183271D01*
X140477235Y-64023235D01*
X140637271Y-63891897D01*
X140723025Y-63846061D01*
X140819851Y-63794306D01*
X140819854Y-63794305D01*
X141017968Y-63734207D01*
X141120903Y-63724069D01*
X141172369Y-63719000D01*
X141275631Y-63719000D01*
X141327097Y-63724069D01*
X141327097Y-63724069D01*
G37*
M02*
