G04 #@! TF.GenerationSoftware,KiCad,Pcbnew,5.1.3-ffb9f22~84~ubuntu19.04.1*
G04 #@! TF.CreationDate,2019-08-05T22:14:11+03:00*
G04 #@! TF.ProjectId,TNY280_Preamp_PSU,544e5932-3830-45f5-9072-65616d705f50,rev?*
G04 #@! TF.SameCoordinates,Original*
G04 #@! TF.FileFunction,Profile,NP*
%FSLAX46Y46*%
G04 Gerber Fmt 4.6, Leading zero omitted, Abs format (unit mm)*
G04 Created by KiCad (PCBNEW 5.1.3-ffb9f22~84~ubuntu19.04.1) date 2019-08-05 22:14:11*
%MOMM*%
%LPD*%
G04 APERTURE LIST*
%ADD10C,0.500000*%
G04 APERTURE END LIST*
D10*
X105410000Y-98425000D02*
X105410000Y-60960000D01*
X160655000Y-98425000D02*
X105410000Y-98425000D01*
X160655000Y-60960000D02*
X160655000Y-98425000D01*
X105410000Y-60960000D02*
X160655000Y-60960000D01*
M02*
